E:\Eclipse-Workspace\referraltoolservices\src\main\java\com\referraltool\model\AdminModel.java
E:\Eclipse-Workspace\referraltoolservices\src\main\java\com\referraltool\dao\UtilsDAO.java
E:\Eclipse-Workspace\referraltoolservices\src\main\java\com\referraltool\model\SalesRepModel.java
E:\Eclipse-Workspace\referraltoolservices\src\main\java\com\referraltool\utils\Utils.java
E:\Eclipse-Workspace\referraltoolservices\src\main\java\com\referraltool\utils\QueryFilter.java
E:\Eclipse-Workspace\referraltoolservices\src\main\java\com\referraltool\model\SendMailModel.java
E:\Eclipse-Workspace\referraltoolservices\src\main\java\com\referraltool\controller\SalesRepController.java
E:\Eclipse-Workspace\referraltoolservices\src\main\java\com\referraltool\utils\Constant.java
E:\Eclipse-Workspace\referraltoolservices\src\main\java\com\referraltool\bean\ReferralInfoBean.java
E:\Eclipse-Workspace\referraltoolservices\src\main\java\com\referraltool\dao\CommonDAO.java
E:\Eclipse-Workspace\referraltoolservices\src\main\java\com\referraltool\authentication\AuthenticationService.java
E:\Eclipse-Workspace\referraltoolservices\src\main\java\com\referraltool\utils\DataBaseManager.java
E:\Eclipse-Workspace\referraltoolservices\src\main\java\com\referraltool\authentication\RestAuthenticationFilter.java
E:\Eclipse-Workspace\referraltoolservices\src\main\java\com\referraltool\controller\AdminController.java
